{
  "projectName": "vachercher",
  "version": "3.1",
  "frontend": "android",
  "android": {
    "config": {
      "ResDir": "app/src/main/res"
    }
  },
  "providers": [
    "awscloudformation"
  ]
}